Copyright 1986-2014 Xilinx, Inc. All Rights Reserved.
--------------------------------------------------------------------------------------------
| Tool Version : Vivado v.2014.3 (win64) Build 1034051 Fri Oct  3 17:14:12 MDT 2014
| Date         : Fri Nov 28 14:01:02 2014
| Host         : Mitch running 64-bit Service Pack 1  (build 7601)
| Command      : report_control_sets -verbose -file mys_xc7z010_trd_control_sets_placed.rpt
| Design       : mys_xc7z010_trd
| Device       : xc7z010
--------------------------------------------------------------------------------------------

Control Set Information

Table of Contents
-----------------
1. Summary
2. Flip-Flop Distribution
3. Detailed Control Set Information

1. Summary
----------

+-------------------------------------------------------------------+-------+
|                               Status                              | Count |
+-------------------------------------------------------------------+-------+
| Number of unique control sets                                     |     4 |
| Minimum Number of register sites lost to control set restrictions |    22 |
+-------------------------------------------------------------------+-------+


2. Flip-Flop Distribution
-------------------------

+--------------+-----------------------+------------------------+-----------------+--------------+
| Clock Enable | Synchronous Set/Reset | Asynchronous Set/Reset | Total Registers | Total Slices |
+--------------+-----------------------+------------------------+-----------------+--------------+
| No           | No                    | No                     |               1 |            1 |
| No           | No                    | Yes                    |              13 |            6 |
| No           | Yes                   | No                     |               0 |            0 |
| Yes          | No                    | No                     |               0 |            0 |
| Yes          | No                    | Yes                    |               0 |            0 |
| Yes          | Yes                   | No                     |              20 |            5 |
+--------------+-----------------------+------------------------+-----------------+--------------+


3. Detailed Control Set Information
-----------------------------------

+------------------------+---------------+-----------------------+------------------+----------------+
|      Clock Signal      | Enable Signal |    Set/Reset Signal   | Slice Load Count | Bel Load Count |
+------------------------+---------------+-----------------------+------------------+----------------+
|  IO_B34_LP11_IBUF_BUFG |               |                       |                1 |              1 |
|  IO_B34_LP11_IBUF_BUFG |               | SW_IBUF[3]            |                1 |              1 |
|  n_0_PL_CLK1K_reg      |               | SW_IBUF[3]            |                5 |             12 |
|  IO_B34_LP11_IBUF_BUFG | PS_iRESETn    | n_0_COUNT_1MS[20]_i_1 |                5 |             20 |
+------------------------+---------------+-----------------------+------------------+----------------+


